OCTO> select names4.id, firstName, lastName, pastaName from names4
OCTO> inner join pastas on pastas.pastaName = names4.favoritePasta
OCTO> where firstName = "Zero"
OCTO> order by lastName;
Added SET and/or Non-SET trigger on ^names4 named %ydboctoT*
Added SET and/or Non-SET trigger on ^pastas named %ydboctoT*
0|Zero|Cool|Pappardelle
8|Zero|Day|Rotini
5|Zero|Lame|Lasagna
OCTO> 
