OCTO> select "1"::integer from names limit 1;
1
OCTO> select "1.1"::integer from names limit 1;
1.1
OCTO> select * from names where "1"::integer = names.id;
1|Acid|Burn
OCTO> select * from names where "1.1"::integer = names.id;
OCTO> 
