OCTO> select 1/0 from names;
[ERROR] PATH:LINENUM DATE TIME : YottaDB error: 150373210,octoPlan1+6^%ydboctoP*,%YDB-E-DIVZERO, Attempt to divide by zero
OCTO> select * from names;
0|Zero|Cool
1|Acid|Burn
2|Cereal|Killer
3|Lord|Nikon
4|Joey|
5|Zero|Cool
OCTO> 
