OCTO> select * from names order by 1;
[ WARN] PATH:LINENUM DATE TIME : Feature not implemented: ORDER BY column_number
[ERROR] PATH:LINENUM DATE TIME : Error parsing statement: select * from names order by 1;

OCTO> 
