[ERROR] PATH:LINENUM DATE TIME : Unknown column: COLUMN_A1

select
COLUMN_A1
COLUMN_A1_ERROR
[ERROR] PATH:LINENUM DATE TIME : Unknown column: COLUMN_B1

select
COLUMN_A1
,COLUMN_B1
COLUMN_B1_ERROR
[ERROR] PATH:LINENUM DATE TIME : Error parsing statement: select
COLUMN_A1
,COLUMN_B1
from names;
[ERROR] PATH:LINENUM DATE TIME : Unknown column: COLUMN_A2

select
COLUMN_A2
COLUMN_A2_ERROR
[ERROR] PATH:LINENUM DATE TIME : Unknown column: COLUMN_B2

select
COLUMN_A2
,COLUMN_B2
COLUMN_B2_ERROR
[ERROR] PATH:LINENUM DATE TIME : Error parsing statement: select
COLUMN_A2
,COLUMN_B2
from names;
0|Zero|Cool

