OCTO> select firstname from names limit 1; select lastname from names limit 1;
[ INFO] PATH:LINENUM DATE TIME : Parsing done for SQL command [select firstname from names limit 1;]
[ INFO] PATH:LINENUM DATE TIME : Generating SQL for CURSOR_NUM
[ INFO] PATH:LINENUM DATE TIME : Generating M file [./_ydboctoP*.m] (to execute SQL query)
[ INFO] PATH:LINENUM DATE TIME : print_temporary_table()
Zero
[ INFO] PATH:LINENUM DATE TIME : Parsing done for SQL command [select lastname from names limit 1;]
[ INFO] PATH:LINENUM DATE TIME : Generating SQL for CURSOR_NUM
[ INFO] PATH:LINENUM DATE TIME : Generating M file [./_ydboctoP*.m] (to execute SQL query)
[ INFO] PATH:LINENUM DATE TIME : print_temporary_table()
Cool
OCTO> select * from names limit 1;
[ INFO] PATH:LINENUM DATE TIME : Parsing done for SQL command [select * from names limit 1;]
[ INFO] PATH:LINENUM DATE TIME : Generating SQL for CURSOR_NUM
[ INFO] PATH:LINENUM DATE TIME : Generating M file [./_ydboctoP*.m] (to execute SQL query)
[ INFO] PATH:LINENUM DATE TIME : print_temporary_table()
0|Zero|Cool
OCTO> ;
[ INFO] PATH:LINENUM DATE TIME : Parsing done for SQL command [;]
OCTO> [ INFO] PATH:LINENUM DATE TIME : Parsing done for SQL command []

