Zero
Cool

;; This is a generated file; do not modify. Generated M code corresponds to below SQL query
;; ---------------------------------------------------------
;  select lastname from names limit 1;
;; ---------------------------------------------------------

octoPlan0(cursorId)
    DO octoPlan1(cursorId)
    QUIT

octoPlan1(cursorId)
    NEW %ydboctoz SET %ydboctozlimit=0 KILL %ydboctocursor(cursorId,"keys",2,"","")
    SET %ydboctocursor(cursorId,"keys",0,"NAMES","ID")=""
    FOR  SET %ydboctocursor(cursorId,"keys",0,"NAMES","ID")=$ORDER(^names(%ydboctocursor(cursorId,"keys",0,"NAMES","ID"))) QUIT:(%ydboctocursor(cursorId,"keys",0,"NAMES","ID")="")!((1)'>$GET(%ydboctozlimit))  DO
    . IF 1 DO
    . . SET:1&$INCREMENT(%ydboctocursor(cursorId,"keys",2,"",""))&$INCREMENT(%ydboctozlimit) %ydboctoz=42
    . . SET:1 %ydboctocursor(cursorId,"keys",2,"","",%ydboctocursor(cursorId,"keys",2,"",""))=$GET(%ydboctocursor(cursorId,"keys",2,"","",%ydboctocursor(cursorId,"keys",2,"","")))_$PIECE($GET(^names(%ydboctocursor(cursorId,"keys",0,"NAMES","ID"))),"|",3)
    QUIT
;; This is a generated file; do not modify. Generated M code corresponds to below SQL query
;; ---------------------------------------------------------
;  select firstname from names limit 1;
;; ---------------------------------------------------------

octoPlan0(cursorId)
    DO octoPlan1(cursorId)
    QUIT

octoPlan1(cursorId)
    NEW %ydboctoz SET %ydboctozlimit=0 KILL %ydboctocursor(cursorId,"keys",2,"","")
    SET %ydboctocursor(cursorId,"keys",0,"NAMES","ID")=""
    FOR  SET %ydboctocursor(cursorId,"keys",0,"NAMES","ID")=$ORDER(^names(%ydboctocursor(cursorId,"keys",0,"NAMES","ID"))) QUIT:(%ydboctocursor(cursorId,"keys",0,"NAMES","ID")="")!((1)'>$GET(%ydboctozlimit))  DO
    . IF 1 DO
    . . SET:1&$INCREMENT(%ydboctocursor(cursorId,"keys",2,"",""))&$INCREMENT(%ydboctozlimit) %ydboctoz=42
    . . SET:1 %ydboctocursor(cursorId,"keys",2,"","",%ydboctocursor(cursorId,"keys",2,"",""))=$GET(%ydboctocursor(cursorId,"keys",2,"","",%ydboctocursor(cursorId,"keys",2,"","")))_$PIECE($GET(^names(%ydboctocursor(cursorId,"keys",0,"NAMES","ID"))),"|",2)
    QUIT
