OCTO> SELECT invalid from (SELECT invalid from names);
[ERROR] PATH:LINENUM DATE TIME : Unknown column: INVALID

SELECT invalid from (SELECT invalid from names);
                            ^^^^^^^
[ERROR] PATH:LINENUM DATE TIME : Error parsing statement: SELECT invalid from (SELECT invalid from names);

OCTO> 
