[ERROR] PATH:LINENUM DATE TIME : Unknown column: C.INVALIDE

select invalidA, invalidB, invalidC, invalidD
from names c
inner join names o
on c.invalidE = o.invalidF
   ^^^^^^^^^^
[ERROR] PATH:LINENUM DATE TIME : Unknown column: O.INVALIDF

select invalidA, invalidB, invalidC, invalidD
from names c
inner join names o
on c.invalidE = o.invalidF
                ^^^^^^^^^^
[ERROR] PATH:LINENUM DATE TIME : Unknown column: INVALIDA

select invalidA, invalidB, invalidC, invalidD
       ^^^^^^^^
[ERROR] PATH:LINENUM DATE TIME : Unknown column: INVALIDB

select invalidA, invalidB, invalidC, invalidD
                 ^^^^^^^^
[ERROR] PATH:LINENUM DATE TIME : Unknown column: INVALIDC

select invalidA, invalidB, invalidC, invalidD
                           ^^^^^^^^
[ERROR] PATH:LINENUM DATE TIME : Unknown column: INVALIDD

select invalidA, invalidB, invalidC, invalidD
                                     ^^^^^^^^
[ERROR] PATH:LINENUM DATE TIME : Error parsing statement: select invalidA, invalidB, invalidC, invalidD
from names c
inner join names o
on c.invalidE = o.invalidF


