OCTO> select notathing as a
OCTO> from names; select * from names where
[ERROR] PATH:LINENUM DATE TIME : Unknown column: NOTATHING

select notathing as a
       ^^^^^^^^^
[ERROR] PATH:LINENUM DATE TIME : Error parsing statement: select notathing as a
from names;
OCTO> alsonotathing = 0; select * from names limit 1;
[ERROR] PATH:LINENUM DATE TIME : Unknown column: ALSONOTATHING

from names; select * from names where
alsonotathing = 0; select * from names limit 1;
^^^^^^^^^^^^^
[ERROR] PATH:LINENUM DATE TIME : Error parsing statement: select * from names where
alsonotathing = 0;
0|Zero|Cool
OCTO> 
