OCTO> SELECT * FROM names AS t1
OCTO> CROSS JOIN names AS t2
OCTO> WHERE t1.id = t2.id;
0|Zero|Cool|0|Zero|Cool
1|Acid|Burn|1|Acid|Burn
2|Cereal|Killer|2|Cereal|Killer
3|Lord|Nikon|3|Lord|Nikon
4|Joey||4|Joey|
5|Zero|Cool|5|Zero|Cool
OCTO> 
;; This is a generated file; do not modify. Generated M code corresponds to below SQL query
;; ---------------------------------------------------------
;  SELECT * FROM names AS t1
;  CROSS JOIN names AS t2
;  WHERE t1.id = t2.id;
;; ---------------------------------------------------------

octoPlan0(cursorId)
    DO octoPlan1(cursorId)
    QUIT

octoPlan1(cursorId)
    NEW %ydboctoz KILL %ydboctocursor(cursorId,"keys",3,"","")
    SET %ydboctocursor(cursorId,"keys",0,"NAMES","ID")=""
    FOR  SET %ydboctocursor(cursorId,"keys",0,"NAMES","ID")=$ORDER(^names(%ydboctocursor(cursorId,"keys",0,"NAMES","ID"))) QUIT:(%ydboctocursor(cursorId,"keys",0,"NAMES","ID")="")  DO
    . SET %ydboctocursor(cursorId,"keys",1,"NAMES","ID")=%ydboctocursor(cursorId,"keys",0,"NAMES","ID") IF ($DATA(^names(%ydboctocursor(cursorId,"keys",1,"NAMES","ID")))'=0) DO
    . . IF 1 DO
    . . . SET:1&$INCREMENT(%ydboctocursor(cursorId,"keys",3,"","")) %ydboctoz=42
    . . . SET:1 %ydboctocursor(cursorId,"keys",3,"","",%ydboctocursor(cursorId,"keys",3,"",""))=$GET(%ydboctocursor(cursorId,"keys",3,"","",%ydboctocursor(cursorId,"keys",3,"","")))_%ydboctocursor(cursorId,"keys",0,"NAMES","ID")_"|"_$PIECE($GET(^names(%ydboctocursor(cursorId,"keys",0,"NAMES","ID"))),"|",2)_"|"_$PIECE($GET(^names(%ydboctocursor(cursorId,"keys",0,"NAMES","ID"))),"|",3)_"|"_%ydboctocursor(cursorId,"keys",1,"NAMES","ID")_"|"_$PIECE($GET(^names(%ydboctocursor(cursorId,"keys",1,"NAMES","ID"))),"|",2)_"|"_$PIECE($GET(^names(%ydboctocursor(cursorId,"keys",1,"NAMES","ID"))),"|",3)
    QUIT
