#################################################################
#								#
# Copyright (c) 2019 YottaDB LLC and/or its subsidiaries.	#
# All rights reserved.						#
#								#
#	This source code contains the intellectual property	#
#	of its copyright holder(s), and is made available	#
#	under a license.  If you do not know the terms of	#
#	the license, please stop and do not read further.	#
#								#
#################################################################

0
2
3
5
7
8
9
10
11
12
15
16
17
18
19
21
22
23
24
25
26
27
28
29
31
32
34
38
39
40
41
42
45
46
47
48
50
51
53
59
61
62
63
64
65
67
68
70
71
72
74
75
76
77
78
79
80
81
83
84
85
87
88
89
90
91
93
94
96
99
101
102
104
105
106
108
110
111
112
114
115
116
117
118
119
120
121
125
126
127
130
134
135
136
137
138
140
141
143
145
147
149
150
152
154
156
157
158
159
160
161
164
166
169
172
174
175
176
177
179
180
181
182
183
184
185
186
189
190
192
195
197
198
199
200
201
203
204
205
206
207
208
211
212
214
215
217
219
220
223
224
225
226
227
228
229
230
231
233
234
235
236
237
238
239
240
241
242
243
246
247
248
250
251
252
254
255
257
258
259
260
261
262
264
265
266
267
270
271
275
277
278
279
280
283
285
286
287
288
289
291
294
296
297
298
304
306
307
308
309
310
311
312
315
316
317
318
319
320
322
323
325
326
329
330
332
333
338
340
341
343
344
345
347
348
351
352
353
354
355
356
357
359
361
363
364
366
367
369
370
372
373
375
377
378
379
380
381
382
383
384
385
386
387
389
390
392
395
396
398
399
400
401
402
404
405
406
407
408
412
414
415
417
418
419
420
421
422
423
425
426
428
430
432
433
434
435
438
439
441
443
444
445
446
451
452
454
455
459
461
463
467
468
469
470
471
473
474
475
477
478
479
480
481
482
484
487
489
490
491
492
494
495
496
497
499
500
502
503
504
505
508
510
511
512
515
516
517
518
519
520
523
525
528
529
530
531
532
534
535
537
538
541
542
543
547
548
549
550
552
554
556
558
561
565
566
567
568
569
570
571
572
573
575
578
579
581
585
589
592
594
597
598
599
602
604
606
607
609
610
611
612
614
615
616
617
621
622
625
626
627
628
630
631
632
633
635
636
637
638
639
642
643
644
646
648
649
650
651
652
653
654
656
658
659
661
662
663
664
665
666
667
668
670
672
673
674
676
677
678
679
680
681
682
683
684
685
687
688
689
690
691
692
693
694
695
696
697
700
701
702
703
705
708
709
710
711
712
713
714
715
716
718
720
721
722
724
725
726
727
728
729
730
731
732
733
735
737
738
740
743
744
747
750
751
754
755
756
759
760
763
764
765
766
768
771
773
774
775
777
778
779
780
783
784
785
786
787
789
790
791
793
795
796
797
798
799
800
801
803
804
805
807
809
810
811
813
814
816
817
818
819
821
822
823
824
826
827
828
829
830
832
833
834
835
838
839
841
842
844
845
846
847
848
849
853
854
855
857
858
859
860
864
865
866
867
869
870
872
873
874
878
880
881
882
883
887
888
889
890
891
893
894
895
896
898
900
901
902
903
904
907
908
909
910
911
912
913
914
915
916
917
919
921
922
923
924
927
930
931
932
934
935
940
941
942
943
944
945
947
950
951
954
955
956
957
959
961
963
964
967
968
969
970
971
973
974
975
977
978
979
980
983
984
985
986
987
988
990
991
992
996
997
999

